WARNING:root:This is a Warning message
ERROR:root:This is an error message
CRITICAL:root:This is an critical message


DEBUG:root:This is a debug message
INFO:root:This is an INFO message
WARNING:root:This is a Warning message
ERROR:root:This is an error message
CRITICAL:root:This is an critical message

2020-04-13 17:29:25,920 - DEBUG - root -  This is a debug message
2020-04-13 17:29:25,921 - INFO - root -  This is an INFO message
2020-04-13 17:29:25,921 - WARNING - root -  This is a Warning message
2020-04-13 17:29:25,921 - ERROR - root -  This is an error message
2020-04-13 17:29:25,921 - CRITICAL - root -  This is an critical message


Mon Apr 13 17:31:46 2020 - DEBUG - root -  This is a debug message
Mon Apr 13 17:31:46 2020 - INFO - root -  This is an INFO message
Mon Apr 13 17:31:46 2020 - WARNING - root -  This is a Warning message
Mon Apr 13 17:31:46 2020 - ERROR - root -  This is an error message
Mon Apr 13 17:31:46 2020 - CRITICAL - root -  This is an critical message
